<?xml version="1.0" encoding="utf-8"?>
<!-- Generator: Adobe Illustrator 21.0.0, SVG Export Plug-In . SVG Version: 6.00 Build 0)  -->
<svg version="1.1" id="Layer_1" xmlns="http://www.w3.org/2000/svg" xmlns:xlink="http://www.w3.org/1999/xlink" x="0px" y="0px"
	 viewBox="0 0 1320 313" style="enable-background:new 0 0 1320 313;" xml:space="preserve">
<path d="M1093.4,255.6L1093.4,255.6c-8.6,3.4-18.1,5.1-28.8,5.1c-27.9,0-48.7-18.5-55.2-48.6l119.3-32.1h0
	c0-48.9-37.7-83.7-91.9-83.7c-56.7,0-101,42.9-101,112.3c0,67.1,45.6,103.5,102.7,103.5c69.1,0,86.7-54.3,91.2-73.2l-10-2.7
	C1112,245.3,1103.3,251.7,1093.4,255.6z M1036.8,113.1c18.4,0,24.7,21.8,24.7,59.6l-54.6,14.5
	C1006.7,170.6,1007.7,113.1,1036.8,113.1z M914.2,0l-99.4,26.8v11l20.3,13v57.6c-8.4-6.8-21.4-10.3-36.3-10.3
	c-57.1,0-103.5,39.5-103.5,115.4c0,64.4,33,98.5,77.4,98.5c25.6,0,46.7-11.8,62.4-36.2v36.2l99.4-26.8v-11l-20.3-13V0z M835,266.5
	c-5.7,1.9-11.4,2.6-16.7,2.6c-27.2,0-43.3-31.4-43.3-78.6c0-41.4,11.7-68.6,37-68.6c17,0,22.4,10.6,23,30.6V266.5z M1285.7,96.3
	c-13.3,0-20.6,4.9-27.5,11.4c-11.2,10.5-27,41.9-27,41.9l0.4-56.4L1131,120.1v11l20.3,13v167.9l99.4-26.8v-11l-20.3-13l0.6-86.1
	l22.6-24.8c6.3,10.4,17.6,17.5,30.6,17.5c19.8,0,35.8-16,35.8-35.8C1320,112.8,1304.2,96.3,1285.7,96.3z M673.5,159.1
	c0-42.2-22.2-62.9-59.4-62.9c-36,0-57.9,20.7-71.7,38.7V92.8l-99.3,26.7v11.6l20.3,13l0,140l-20.3,13v11h119.8v-11l-20.3-13
	l-0.1-137c8.8-3.1,17.6-5,28.4-5c19.2,0,23.8,9.6,23.8,23.8v142.2H694v-11l-20.3-13L673.5,159.1z M119.6,132.7
	C80.9,121.9,64.8,112,64.8,88.2c0-21.1,15.7-33.3,37.6-33.3c35.7,0,56,24.9,65.6,62.1h18.8V58.3c-18.4-13.8-47.9-23-84.3-23
	C44.5,35.3,1.2,69,1.2,125.4c0,47.1,28,73.6,81.3,88.2c41,11.1,57.1,21.8,57.1,44.8c0,22.6-17.3,33.7-42.6,33.7
	c-38.7,0-64.8-31.4-74.4-72.8H0v64.5c5.6,3.9,37.5,28.3,97,28.3c59.8,0,108.5-26.8,108.5-88.6C205.5,167.2,170.2,146.9,119.6,132.7z
	 M330.7,96.3c-65.5,0-111.2,43.9-111.2,107.9v0c0,64,45.6,107.9,111.2,107.9c65.5,0,111.2-43.9,111.2-107.9v0
	C441.9,140.1,396.2,96.3,330.7,96.3z M330.7,295.2c-20.3,0-27.2-43.1-27.2-91.1c0-47.9,6.9-91.1,27.2-91.1
	c20.3,0,27.2,43.1,27.2,91.1C357.9,252.1,351,295.2,330.7,295.2z"/>
</svg>
